Target-seq analysis - Patient IF137
…
Discripancies on JAK2

disc_jak2 <-  comparison %>%filter (JAK2_V617F_comparison == FALSE) %>% select (cell_ID, JAK2_V617F, JAK2_V617F_published)

gDNA_data %>% 
  filter (MUT == "JAK2_V617F") %>%
  mutate (cell_ID = cell_id) %>%
  select(MUT, cell_ID, AD, RD, FREQ) %>%
  left_join (cDNA_vcf %>%   filter (MUT == "JAK2_V617F") %>% mutate (cell_ID = cell_id) %>% select(MUT, cell_ID, AD, RD, FREQ), by = c("cell_ID", "MUT")) %>%
  right_join (disc_jak2, by = "cell_ID") 

# A tibble: 23 x 10
   MUT   cell_ID  AD.x  RD.x FREQ.x  AD.y  RD.y FREQ.y JAK2_V617F
   <chr> <chr>   <dbl> <dbl> <chr>  <dbl> <dbl> <chr>       <dbl>
 1 JAK2 SRR815 25209    71 99.44%   154   174 46.95%          1
 2 JAK2 SRR815    77 40867 0.19%     33  1622 1.99%           1
 3 JAK2 SRR815    53 18013 0.29%     47   122 27.49%          1
 4 JAK2 SRR815 68596   248 99.45%   248    39 86.41%          1
 5 JAK2 SRR815    92 54227 0.17%    144  6656 2.12%           1
 6 JAK2 SRR815 36076   121 99.39%    19    25 43.18%          1
 7 JAK2 SRR815 56012   195 99.52%  2669    62 97.3%           1
 8 JAK2 SRR815    79 29206 0.27%     51    45 53.12%          1
 9 JAK2 SRR815    67 36045 0.19%    103   591 14.84%          1
10 JAK2 SRR815 24270    64 99.37%   194    13 93.72%          1
#  with 13 more rows, and 1 more variable: JAK2_V617F_published <dbl>
…
